graph.vcd
$date
     Mar 31, 2025       21:20:25
$end

$version
              SystemC 2.3.0-ASI --- Sep 10 2012 16:44:06
$end

$timescale
     1 ps
$end

$scope module SystemC $end
$var wire    1  aaa  s_clock       $end
$var wire    1  aab  d_clock       $end
$var wire    1  aac  r_clock       $end
$var wire   11  aad  si_source(0).data [10:0]  $end
$var wire    4  aae  si_source(0).id [3:0]  $end
$var wire    4  aaf  si_source(0).dest [3:0]  $end
$var wire    1  aag  si_source(0).pkt_clk       $end
$var wire    1  aah  si_source(0).h_t       $end
$var wire   11  aai  si_source(1).data [10:0]  $end
$var wire    4  aaj  si_source(1).id [3:0]  $end
$var wire    4  aak  si_source(1).dest [3:0]  $end
$var wire    1  aal  si_source(1).pkt_clk       $end
$var wire    1  aam  si_source(1).h_t       $end
$var wire   11  aan  si_source(2).data [10:0]  $end
$var wire    4  aao  si_source(2).id [3:0]  $end
$var wire    4  aap  si_source(2).dest [3:0]  $end
$var wire    1  aaq  si_source(2).pkt_clk       $end
$var wire    1  aar  si_source(2).h_t       $end
$var wire   11  aas  si_source(3).data [10:0]  $end
$var wire    4  aat  si_source(3).id [3:0]  $end
$var wire    4  aau  si_source(3).dest [3:0]  $end
$var wire    1  aav  si_source(3).pkt_clk       $end
$var wire    1  aaw  si_source(3).h_t       $end
$var wire   11  aax  si_source(4).data [10:0]  $end
$var wire    4  aay  si_source(4).id [3:0]  $end
$var wire    4  aaz  si_source(4).dest [3:0]  $end
$var wire    1  aba  si_source(4).pkt_clk       $end
$var wire    1  abb  si_source(4).h_t       $end
$var wire   11  abc  si_source(5).data [10:0]  $end
$var wire    4  abd  si_source(5).id [3:0]  $end
$var wire    4  abe  si_source(5).dest [3:0]  $end
$var wire    1  abf  si_source(5).pkt_clk       $end
$var wire    1  abg  si_source(5).h_t       $end
$var wire   11  abh  si_source(6).data [10:0]  $end
$var wire    4  abi  si_source(6).id [3:0]  $end
$var wire    4  abj  si_source(6).dest [3:0]  $end
$var wire    1  abk  si_source(6).pkt_clk       $end
$var wire    1  abl  si_source(6).h_t       $end
$var wire   11  abm  si_source(7).data [10:0]  $end
$var wire    4  abn  si_source(7).id [3:0]  $end
$var wire    4  abo  si_source(7).dest [3:0]  $end
$var wire    1  abp  si_source(7).pkt_clk       $end
$var wire    1  abq  si_source(7).h_t       $end
$var wire   11  abr  si_source(8).data [10:0]  $end
$var wire    4  abs  si_source(8).id [3:0]  $end
$var wire    4  abt  si_source(8).dest [3:0]  $end
$var wire    1  abu  si_source(8).pkt_clk       $end
$var wire    1  abv  si_source(8).h_t       $end
$var wire   11  abw  si_source(9).data [10:0]  $end
$var wire    4  abx  si_source(9).id [3:0]  $end
$var wire    4  aby  si_source(9).dest [3:0]  $end
$var wire    1  abz  si_source(9).pkt_clk       $end
$var wire    1  aca  si_source(9).h_t       $end
$var wire   11  acb  si_source(10).data [10:0]  $end
$var wire    4  acc  si_source(10).id [3:0]  $end
$var wire    4  acd  si_source(10).dest [3:0]  $end
$var wire    1  ace  si_source(10).pkt_clk       $end
$var wire    1  acf  si_source(10).h_t       $end
$var wire   11  acg  si_source(11).data [10:0]  $end
$var wire    4  ach  si_source(11).id [3:0]  $end
$var wire    4  aci  si_source(11).dest [3:0]  $end
$var wire    1  acj  si_source(11).pkt_clk       $end
$var wire    1  ack  si_source(11).h_t       $end
$var wire   11  acl  si_source(12).data [10:0]  $end
$var wire    4  acm  si_source(12).id [3:0]  $end
$var wire    4  acn  si_source(12).dest [3:0]  $end
$var wire    1  aco  si_source(12).pkt_clk       $end
$var wire    1  acp  si_source(12).h_t       $end
$var wire   11  acq  si_source(13).data [10:0]  $end
$var wire    4  acr  si_source(13).id [3:0]  $end
$var wire    4  acs  si_source(13).dest [3:0]  $end
$var wire    1  act  si_source(13).pkt_clk       $end
$var wire    1  acu  si_source(13).h_t       $end
$var wire   11  acv  si_source(14).data [10:0]  $end
$var wire    4  acw  si_source(14).id [3:0]  $end
$var wire    4  acx  si_source(14).dest [3:0]  $end
$var wire    1  acy  si_source(14).pkt_clk       $end
$var wire    1  acz  si_source(14).h_t       $end
$var wire   11  ada  si_source(15).data [10:0]  $end
$var wire    4  adb  si_source(15).id [3:0]  $end
$var wire    4  adc  si_source(15).dest [3:0]  $end
$var wire    1  add  si_source(15).pkt_clk       $end
$var wire    1  ade  si_source(15).h_t       $end
$var wire   11  adf  si_sink(0).data [10:0]  $end
$var wire    4  adg  si_sink(0).id [3:0]  $end
$var wire    4  adh  si_sink(0).dest [3:0]  $end
$var wire    1  adi  si_sink(0).pkt_clk       $end
$var wire    1  adj  si_sink(0).h_t       $end
$var wire   11  adk  si_sink(1).data [10:0]  $end
$var wire    4  adl  si_sink(1).id [3:0]  $end
$var wire    4  adm  si_sink(1).dest [3:0]  $end
$var wire    1  adn  si_sink(1).pkt_clk       $end
$var wire    1  ado  si_sink(1).h_t       $end
$var wire   11  adp  si_sink(2).data [10:0]  $end
$var wire    4  adq  si_sink(2).id [3:0]  $end
$var wire    4  adr  si_sink(2).dest [3:0]  $end
$var wire    1  ads  si_sink(2).pkt_clk       $end
$var wire    1  adt  si_sink(2).h_t       $end
$var wire   11  adu  si_sink(3).data [10:0]  $end
$var wire    4  adv  si_sink(3).id [3:0]  $end
$var wire    4  adw  si_sink(3).dest [3:0]  $end
$var wire    1  adx  si_sink(3).pkt_clk       $end
$var wire    1  ady  si_sink(3).h_t       $end
$var wire   11  adz  si_sink(4).data [10:0]  $end
$var wire    4  aea  si_sink(4).id [3:0]  $end
$var wire    4  aeb  si_sink(4).dest [3:0]  $end
$var wire    1  aec  si_sink(4).pkt_clk       $end
$var wire    1  aed  si_sink(4).h_t       $end
$var wire   11  aee  si_sink(5).data [10:0]  $end
$var wire    4  aef  si_sink(5).id [3:0]  $end
$var wire    4  aeg  si_sink(5).dest [3:0]  $end
$var wire    1  aeh  si_sink(5).pkt_clk       $end
$var wire    1  aei  si_sink(5).h_t       $end
$var wire   11  aej  si_sink(6).data [10:0]  $end
$var wire    4  aek  si_sink(6).id [3:0]  $end
$var wire    4  ael  si_sink(6).dest [3:0]  $end
$var wire    1  aem  si_sink(6).pkt_clk       $end
$var wire    1  aen  si_sink(6).h_t       $end
$var wire   11  aeo  si_sink(7).data [10:0]  $end
$var wire    4  aep  si_sink(7).id [3:0]  $end
$var wire    4  aeq  si_sink(7).dest [3:0]  $end
$var wire    1  aer  si_sink(7).pkt_clk       $end
$var wire    1  aes  si_sink(7).h_t       $end
$var wire   11  aet  si_sink(8).data [10:0]  $end
$var wire    4  aeu  si_sink(8).id [3:0]  $end
$var wire    4  aev  si_sink(8).dest [3:0]  $end
$var wire    1  aew  si_sink(8).pkt_clk       $end
$var wire    1  aex  si_sink(8).h_t       $end
$var wire   11  aey  si_sink(9).data [10:0]  $end
$var wire    4  aez  si_sink(9).id [3:0]  $end
$var wire    4  afa  si_sink(9).dest [3:0]  $end
$var wire    1  afb  si_sink(9).pkt_clk       $end
$var wire    1  afc  si_sink(9).h_t       $end
$var wire   11  afd  si_sink(10).data [10:0]  $end
$var wire    4  afe  si_sink(10).id [3:0]  $end
$var wire    4  aff  si_sink(10).dest [3:0]  $end
$var wire    1  afg  si_sink(10).pkt_clk       $end
$var wire    1  afh  si_sink(10).h_t       $end
$var wire   11  afi  si_sink(11).data [10:0]  $end
$var wire    4  afj  si_sink(11).id [3:0]  $end
$var wire    4  afk  si_sink(11).dest [3:0]  $end
$var wire    1  afl  si_sink(11).pkt_clk       $end
$var wire    1  afm  si_sink(11).h_t       $end
$var wire   11  afn  si_sink(12).data [10:0]  $end
$var wire    4  afo  si_sink(12).id [3:0]  $end
$var wire    4  afp  si_sink(12).dest [3:0]  $end
$var wire    1  afq  si_sink(12).pkt_clk       $end
$var wire    1  afr  si_sink(12).h_t       $end
$var wire   11  afs  si_sink(13).data [10:0]  $end
$var wire    4  aft  si_sink(13).id [3:0]  $end
$var wire    4  afu  si_sink(13).dest [3:0]  $end
$var wire    1  afv  si_sink(13).pkt_clk       $end
$var wire    1  afw  si_sink(13).h_t       $end
$var wire   11  afx  si_sink(14).data [10:0]  $end
$var wire    4  afy  si_sink(14).id [3:0]  $end
$var wire    4  afz  si_sink(14).dest [3:0]  $end
$var wire    1  aga  si_sink(14).pkt_clk       $end
$var wire    1  agb  si_sink(14).h_t       $end
$var wire   11  agc  si_sink(15).data [10:0]  $end
$var wire    4  agd  si_sink(15).id [3:0]  $end
$var wire    4  age  si_sink(15).dest [3:0]  $end
$var wire    1  agf  si_sink(15).pkt_clk       $end
$var wire    1  agg  si_sink(15).h_t       $end
$upscope $end
$enddefinitions  $end

$comment
All initial values are dumped below at time 0 sec = 0 timescale units.
$end

$dumpvars
1aaa
0aab
0aac
b0 aad
b0 aae
b0 aaf
0aag
0aah
b0 aai
b0 aaj
b0 aak
0aal
0aam
b0 aan
b0 aao
b0 aap
0aaq
0aar
b0 aas
b0 aat
b0 aau
0aav
0aaw
b0 aax
b0 aay
b0 aaz
0aba
0abb
b0 abc
b0 abd
b0 abe
0abf
0abg
b0 abh
b0 abi
b0 abj
0abk
0abl
b0 abm
b0 abn
b0 abo
0abp
0abq
b0 abr
b0 abs
b0 abt
0abu
0abv
b0 abw
b0 abx
b0 aby
0abz
0aca
b0 acb
b0 acc
b0 acd
0ace
0acf
b0 acg
b0 ach
b0 aci
0acj
0ack
b0 acl
b0 acm
b0 acn
0aco
0acp
b0 acq
b0 acr
b0 acs
0act
0acu
b0 acv
b0 acw
b0 acx
0acy
0acz
b0 ada
b0 adb
b0 adc
0add
0ade
b0 adf
b0 adg
b0 adh
0adi
0adj
b0 adk
b0 adl
b0 adm
0adn
0ado
b0 adp
b0 adq
b0 adr
0ads
0adt
b0 adu
b0 adv
b0 adw
0adx
0ady
b0 adz
b0 aea
b0 aeb
0aec
0aed
b0 aee
b0 aef
b0 aeg
0aeh
0aei
b0 aej
b0 aek
b0 ael
0aem
0aen
b0 aeo
b0 aep
b0 aeq
0aer
0aes
b0 aet
b0 aeu
b0 aev
0aew
0aex
b0 aey
b0 aez
b0 afa
0afb
0afc
b0 afd
b0 afe
b0 aff
0afg
0afh
b0 afi
b0 afj
b0 afk
0afl
0afm
b0 afn
b0 afo
b0 afp
0afq
0afr
b0 afs
b0 aft
b0 afu
0afv
0afw
b0 afx
b0 afy
b0 afz
0aga
0agb
b0 agc
b0 agd
b0 age
0agf
0agg
$end

#10000
1aab
1aac

#12500
0aab
0aac

#15000
1aab
1aac

#17500
0aab
0aac

#20000
1aab
1aac

#22500
0aab
0aac

#25000
1aab
1aac

#27500
0aab
0aac

#30000
1aab
1aac

#32500
0aab
0aac

#35000
1aab
1aac

#37500
0aab
0aac

#40000
1aab
1aac

#42500
0aab
0aac

#45000
1aab
1aac

#47500
0aab
0aac

#50000
1aab
1aac

#52500
0aab
0aac

#55000
1aab
1aac

#57500
0aab
0aac

#60000
1aab
1aac

#62500
0aaa
0aab
0aac

#65000
1aab
1aac

#67500
0aab
0aac

#70000
1aab
1aac

#72500
0aab
0aac

#75000
1aab
1aac

#77500
0aab
0aac

#80000
1aab
1aac

#82500
0aab
0aac

#85000
1aab
1aac

#87500
0aab
0aac

#90000
1aab
1aac

#92500
0aab
0aac

#95000
1aab
1aac

#97500
0aab
0aac

#100000
1aab
1aac

#102500
0aab
0aac

#105000
1aab
1aac

#107500
0aab
0aac

#110000
1aab
1aac

#112500
0aab
0aac

#115000
1aab
1aac

#117500
0aab
0aac

#120000
1aab
1aac

#122500
0aab
0aac

#125000
1aaa
1aab
1aac
b1111101001 aad
b1 aaf
1aag

#127500
0aab
0aac

#130000
1aab
1aac

#132500
0aab
0aac

#135000
1aab
1aac
b1111101001 adk
b1 adm
1adn

#137500
0aab
0aac

#140000
1aab
1aac

#142500
0aab
0aac

#145000
1aab
1aac

#147500
0aab
0aac

#150000
1aab
1aac

#152500
0aab
0aac

#155000
1aab
1aac

#157500
0aab
0aac

#160000
1aab
1aac

#162500
0aab
0aac

#165000
1aab
1aac

#167500
0aab
0aac

#170000
1aab
1aac

#172500
0aab
0aac

#175000
1aab
1aac

#177500
0aab
0aac

#180000
1aab
1aac

#182500
0aab
0aac

#185000
1aab
1aac

#187500
0aaa
0aab
0aac

#190000
1aab
1aac

#192500
0aab
0aac

#195000
1aab
1aac

#197500
0aab
0aac

#200000
1aab
1aac

#202500
0aab
0aac

#205000
1aab
1aac

#207500
0aab
0aac

#210000
1aab
1aac

#212500
0aab
0aac

#215000
1aab
1aac

#217500
0aab
0aac

#220000
1aab
1aac

#222500
0aab
0aac

#225000
1aab
1aac

#227500
0aab
0aac

#230000
1aab
1aac

#232500
0aab
0aac

#235000
1aab
1aac

#237500
0aab
0aac

#240000
1aab
1aac

#242500
0aab
0aac

#245000
1aab
1aac

#247500
0aab
0aac

#250000
1aaa
1aab
1aac
b1111101010 aad
0aag

#252500
0aab
0aac

#255000
1aab
1aac

#257500
0aab
0aac

#260000
1aab
1aac
b1111101010 adk
0adn

#262500
0aab
0aac

#265000
1aab
1aac

#267500
0aab
0aac

#270000
1aab
1aac

#272500
0aab
0aac

#275000
1aab
1aac

#277500
0aab
0aac

#280000
1aab
1aac

#282500
0aab
0aac

#285000
1aab
1aac

#287500
0aab
0aac

#290000
1aab
1aac

#292500
0aab
0aac

#295000
1aab
1aac

#297500
0aab
0aac

#300000
1aab
1aac

#302500
0aab
0aac

#305000
1aab
1aac

#307500
0aab
0aac

#310000
1aab
1aac

#312500
0aaa
0aab
0aac

#315000
1aab
1aac

#317500
0aab
0aac

#320000
1aab
1aac

#322500
0aab
0aac

#325000
1aab
1aac

#327500
0aab
0aac

#330000
1aab
1aac

#332500
0aab
0aac

#335000
1aab
1aac

#337500
0aab
0aac

#340000
1aab
1aac

#342500
0aab
0aac

#345000
1aab
1aac

#347500
0aab
0aac

#350000
1aab
1aac

#352500
0aab
0aac

#355000
1aab
1aac

#357500
0aab
0aac

#360000
1aab
1aac

#362500
0aab
0aac

#365000
1aab
1aac

#367500
0aab
0aac

#370000
1aab
1aac

#372500
0aab
0aac

#375000
1aaa
1aab
1aac
b1111101011 aad
1aag

#377500
0aab
0aac

#380000
1aab
1aac

#382500
0aab
0aac

#385000
1aab
1aac
b1111101011 adk
1adn

#387500
0aab
0aac

#390000
1aab
1aac

#392500
0aab
0aac

#395000
1aab
1aac

#397500
0aab
0aac

#400000
1aab
1aac

#402500
0aab
0aac

#405000
1aab
1aac

#407500
0aab
0aac

#410000
1aab
1aac

#412500
0aab
0aac

#415000
1aab
1aac

#417500
0aab
0aac

#420000
1aab
1aac

#422500
0aab
0aac

#425000
1aab
1aac

#427500
0aab
0aac

#430000
1aab
1aac

#432500
0aab
0aac

#435000
1aab
1aac

#437500
0aaa
0aab
0aac

#440000
1aab
1aac

#442500
0aab
0aac

#445000
1aab
1aac

#447500
0aab
0aac

#450000
1aab
1aac

#452500
0aab
0aac

#455000
1aab
1aac

#457500
0aab
0aac

#460000
1aab
1aac

#462500
0aab
0aac

#465000
1aab
1aac

#467500
0aab
0aac

#470000
1aab
1aac

#472500
0aab
0aac

#475000
1aab
1aac

#477500
0aab
0aac

#480000
1aab
1aac

#482500
0aab
0aac

#485000
1aab
1aac

#487500
0aab
0aac

#490000
1aab
1aac

#492500
0aab
0aac

#495000
1aab
1aac

#497500
0aab
0aac

#500000
1aaa
1aab
1aac
b1111101100 aad
0aag

#502500
0aab
0aac

#505000
1aab
1aac

#507500
0aab
0aac

#510000
1aab
1aac
b1111101100 adk
0adn

